…
``` r
library(data.table)
data <- fread('ah_data_base.csv',encoding = 'UTF-8')
```

``` r
library(tidyverse)
data %>% 
    group_by(province) %>% 
    count()
```

    ## # A tibble: 26 x 2
    ## # Groups:   province [26]
    ##    province           n
    ##    <chr>          <int>
    ##  1 安徽省             1
    ##  2 北京市             3
    ##  3 福建省            13
    ##  4 甘肃省             1
    ##  5 广西壮族自治区     6
    ##  6 贵州省             2
    ##  7 海南省             6
    ##  8 河北省             1
    ##  9 河南省            35
    ## 10 黑龙江省          23
    ## # ... with 16 more rows
…
